<?xml version="1.0" encoding="UTF-8" standalone="no"?>
<!-- Created with Inkscape (http://www.inkscape.org/) -->

<svg
   version="1.1"
   id="svg1"
   width="1200"
   height="1200"
   viewBox="0 0 1200 1200"
   sodipodi:docname="logo.svg"
   inkscape:version="1.3 (0e150ed6c4, 2023-07-21)"
   xmlns:inkscape="http://www.inkscape.org/namespaces/inkscape"
   xmlns:sodipodi="http://sodipodi.sourceforge.net/DTD/sodipodi-0.dtd"
   xmlns:xlink="http://www.w3.org/1999/xlink"
   xmlns="http://www.w3.org/2000/svg"
   xmlns:svg="http://www.w3.org/2000/svg">
  <defs
     id="defs1" />
  <sodipodi:namedview
     id="namedview1"
     pagecolor="#ffffff"
     bordercolor="#666666"
     borderopacity="1.0"
     inkscape:showpageshadow="2"
     inkscape:pageopacity="0.0"
     inkscape:pagecheckerboard="0"
     inkscape:deskcolor="#d1d1d1"
     inkscape:zoom="0.6425"
     inkscape:cx="660.70039"
     inkscape:cy="600"
     inkscape:window-width="1920"
     inkscape:window-height="1011"
     inkscape:window-x="0"
     inkscape:window-y="0"
     inkscape:window-maximized="1"
     inkscape:current-layer="g1" />
  <g
     inkscape:groupmode="layer"
     inkscape:label="Image"
     id="g1">
    <image
       width="1200"
       height="1200"
       preserveAspectRatio="none"
       xlink:href="data:image/png;base64,iVBORw0KGgoAAAANSUhEUgAABLAAAASwAgMAAACWT1tcAAAABGdBTUEAALGPC/xhBQAAAAFzUkdC&#10;AK7OHOkAAAAMUExURTGNpSp2mvfza6HFg46b+EAAABbtSURBVHja7N0/b9vaGcfxY7tqAaNQege+&#10;Cb0EoWi53CVDSwRkDGRI97wED4WXvITsynABRVIa38FLESBe7lagk96Elt6i20VR15ZE8vDw8I8s&#10;Ujx8+D3oEDO+tfPB7zx8DnlIqYhReygIwAILLLDAAgsCsMACCyywwIIALLDAAgsssCAACyywwAIL&#10;LAjAAgsssMACCwKwwAILLLDAggAssMACCyywIAALLLDAAgssCMACCyywwAILArDAAgsssMCCACyw&#10;wAILLLAgAAsssMACCywIwAILLLDAAgsCsMACCyywwIIALLDAAgsssCAACyywwAILLAjAAgsssMAC&#10;CwKwwAILLLDAggAssMACCyywIAALLLDAAgssCMACCyywwAILArDAAgsssMCCACywwAILLLAgAAss&#10;sMACCywIwAILLLDAAgsCsMACCyywwIIALLDAAgsssCAACyywwAILLAjAAgsssMACCwKwwAILLLDA&#10;ggAssMACCyywIAALLLDAAgssCMACCyywwAILArDAAgsssMCCACywwAILLLAgAAsssMACCywIwAIL&#10;LLDAAgsCsMACCyywwIIALLDAAgsssCAACyywwAILLAjAAgsssMACCwKwwAILLLDAggAssMACCyyw&#10;IAALLLDAAgssCMACCyywwAILArDAAgsssMCCACywwAILLLAgAAsssMACCywIwAJrsFjff/fd92DV&#10;Gb9T+3HmgVU6Ql9p41dglYxAGWMEVuEPzI8zsGpbPQ6wKstV77SUA7nqzUxUTlj1ROuUWH4JVi/O&#10;iSfEClTp8MDSiruqGGDVKlh9KVsnw/IrsdwvW8qVSdiHiahcmYR9mIgnwgpqYbl+RlQOBcv5aCmX&#10;guV6jT8JVqhqD7D8+lje4LGUkhEt5Vaw3I6WcixYTp8QT4AVHITlcrSUY8FyOlrKtWC5HC3lWrBc&#10;bkxbxwoPxlLDxfKVnGgp52ahwyW+bazgGVjOlnjlXrDcjVbLWOGzsNQwsfznYY0GifU8K1fnoXJx&#10;Frpa4pWLs9DVeahcnIWuzsNWsYJnY7k5D5WTs9DReaicnIWOzsM2scIjsNTQsPxjsEYDwzrGysl5&#10;qBydhU7OwxZ/p+A4LG9QWMdZuTgPlauzEKyez8P2sPxjsUYDwjrWysF5qJydhQ42D639RsHxWN5g&#10;sPzjsUaDwTreyr2ipdwtWe4VLeXuLHSvaDmNNRoIVhNWzhUt5XDJcq5otfT7BM1geYPA8pvBGg0C&#10;qxkr14qWcrlkuVa0lMsly7WipVwuWa4VLeVyyQKrxxW+FazG6rtjFb6V3yZoDssTj+UrmUVLOV2y&#10;HCtayu2SBVZvK3wbv0zQJJYnHMtvEmskHKtJK6eKlnK8ZIHV1wrfwu8SNIvlicbym8UaicZSYHWG&#10;dSYZq+H67lKFb/5XCcDqEMsTjOUrsRW+eSwFVodYZ3KxGj8ZOlThweoSK2geyxOL5Su5FR6sLrGa&#10;t3LndNg0VghWt1hKKlbQBpYHFlh+G1gjoVgKrI6xzmRihWB1jaXAGjxW0A6WJxLLV5JPh2B1h6XA&#10;6hzrTCJWCFb3WEoiVgCWA1geWMPG8pXo3gGszrDasnKkdwCrK6wQLBewFFiDxgraw/LAGjKWD5YT&#10;WCOwhoylwHIC6wysAWO12JO60ZWC1RFWAJYjWB5Yw8XywXIEawQWWGB128CD1bv1DljdYIVguYKl&#10;wAILrI6XhmD1bXEIFljOY/lgOYM1AgsssLpdR4MFluDLDmCB5TpWCBZYvcRSYIEFFlgNYgVggdVP&#10;LA8skkWywAILLNexfLDA6ifWCCySRbJIFskCCyywhomlwCJZYDENSRbJIllgkax+JuuMZJEskkWy&#10;SBatw+CnIcmiZpEskkWy6LNIFjWLZJEskkWySBZYJItkkayqEZAskkWyxGORLJJFskgWySJZzmOF&#10;JItkkSzxWCSLZB0yXjyQLNt4eMjDjBeLL+Y3pePn7aE/Jl/qPy/5plEPsapuSV9sFovF8t44+Hhs&#10;cZvF08Z8eyz9+ouX/LS36dF/i8PaWuW0LrfHtAObDNbi6dC59vWX5Kdda0d/koY13f/DVpmjk+2x&#10;+2zStHEfg8bjx/in6apLYVipwo1+eHconYfnBtaNxrxz2U/EMPNtd7KwpkYdyhDOCkqWBSt2ucrW&#10;tt5hlV6E32SnVjZIq0Ks2xzW3Ia1WEtKlj69Zrlz3yFYexcD605Ssqa5fkC3mRdizfJYdzasT5Kw&#10;JuYpTusc9N6hBtZnG9ZSElauatfEskzDuQ3rNEXrNB9SdJ6LS3Z2HoK18GxYd3KwbIsYfXYehPXB&#10;hvVRDlb237vMYd3X77P2ITKxPsnBmuRXfJnu6+YQrB9sWMueYYW1WtKMzaIK696C9dmGtZCDZalE&#10;meO3BVhLZcH6ZMXypGBdFGBd5M6PBtbchjW3Yq2lYX0zbAqwlslF0PsE68vjVxutPO2wHg/+b/9/&#10;8b5fWFFVm3UbXwFcme3XKotlOZWunm5YTNPydJXE6e3pGq2TYI2TAnSZsRkfhDWK516KtS1UE4lY&#10;s2TizU2seeY75xas2fZW2CQhSpMVvUkbCglYl2l/kLG5zLWp5cnaX3hfZ5P1+mQtfJNYfjnWfdKe&#10;Lp+FdRbXp3U2WaFArKXKYU1zPX3ZNHxM1itbsnb3Lj5LwZqmQlMda2LHKk7Wa1uydpWsb1hBKdY8&#10;f6Nw+6/c6Cvpipp1lVx20JP1Th7WKo+1dZroi8OKZJlYu2RdS8Ua57CmOazimhVak3V9qms0TWKF&#10;h2Jt/zzVV4sVyQqtyXopCmtiYM21peHyUl8cVtQse7JeykvWzI41H9fFSpK1lpCsqEayzrWl4HmK&#10;tTqmZsnC0pKlY+2YznNYJCv20Mq5hjU/pM9ai0iWX52s7Z/vtVXQ7EL3qdVnWZP1WQqWnqyLzeKr&#10;vmS8zWMV16wr4xKN19+mtFayzMO3Sl8c1lobehI6+MIWfpLfH5kcvqmNNYov0UQikhUclqw9lr6S&#10;rkjWG+OGxbq/C+nCrrQgWXuljbY4rKhZ7wwsL71E81EKVkGy9lgTE2uZ3gbLJis0b7Ku04t/PwhP&#10;1r5YTc3Wy7jjk9asP5m37730j327u1PYldqTdVGOtchds3ih7S7SkvVKFpY9WXGDpV92GFt2U5bs&#10;ovGSnrR3d6QLGy17ss51rFUe66YA672RrE26xU0Clj1Z8aJwXIB1W4C1zibrr73cGFLcaNmTFSPp&#10;7UIdLK2qL//2900/92cVY9mTFU+/c60RHVv26U5te/z6vvPv0GTFhf1ALOs++N7tKS1utOzJigkv&#10;tEahBtadFetj/7CiQ5I12RemIqyCmrW2Yt2JwbInK8ZSWldVjbUvTle2zfGCk5UsoLWVdHWf9dGO&#10;FfUQyz8gWVVY9g5+bcWay8GyJysRmaSTrnBtmCyvIyvWxz5iBfWTdVGBNbdivbdj/SQHy5qs9CRo&#10;3rBeaC/AMLE+WLFO9Ph9w1hh/WSdZx+hWJVfVjZbhCzWj73EiuonK8W6PADroxXLE4RlTVa6fr5M&#10;S1ThNfjVftp+tmGdKFiNY/mVyfrtf7Wl4dyIU9ndnUyPcGU5Q8rA0pP1IrNh0nxisxBrFj+Hl8f6&#10;FvUVK6hK1iZuN83LVJXJmuSb0n88jhO+g+wkWOYumlk5lr1m7f+DDzrWOjrpaBorrL0/a2J5aLU0&#10;WZf5d9F4ArHMPaUry6PAu8VhWc0a6w80iUhWVHtP6WFYj76/1nsHEcmyng4ntq5zYXsWuKxm/Sb/&#10;lqO1QKzpYVhFW47yF//6nqyg5uMo5kPmu2laVrPOJhqQjGTVxTJfWLf7+9JkvdN6BxnJCo/HKqhZ&#10;Zy9zd3f6nqyo/BG65HlD890guWViPllvtd5BRrKimg9nXppYy8qa9Sp3k7X3yfKrH/udH471lKwr&#10;7d6zkGQFRQ+Up7d05pal4e7vS2tWmNvrsBaLlX1VQQlW4dbujbmLpvfJCstegnGenPgm5uNh25V0&#10;ac2KJub+rN4nK6r3epWNdo3rIkleebKuzZ1/vU+WpcLve6qf49XzrALrn7//z+5/xtbul+ae0rVc&#10;rMXDL+nKJrP3I/libGlU02S9NXcr9z9ZQa2XjdXCWmZr1iv7QwN9xgorX2N3o888pc/JseUMab4S&#10;aikpWWHlCxLv45l5Y17wKnybpPY4ykJSsqI6r948z+wqqoU1ire8rwUly1Lhp7kl8zi/q2he9gbc&#10;3cvG3llfgtFrrKDidcGrZ2DpLxu7k5SssOJF1Le5j0W5LLpwM7M8nKlhrSViKXshWuZW2mVYo/ix&#10;X1HJispPh0vjeqA+KStq1mt5yaqo8Ctjm5G+JKxI1lWyOJSTrPIKf2tsYNM3tlUkK7K+BEMalrJu&#10;aliZT9OVYj0ma9doeaKSFZa9Pn+VLhdnmcXjrKwp3SfrXXxPOjzdowItY0VlL+6+T0v+bSZ495Yb&#10;ZMkFwdtdsq6TOxab032QU8tYfvUHq40zWJu4j7AspC/2ak/JepNshb8+0Ysv2scKCqOVfmTfRv8A&#10;nmksZ/u0i192xE/JepVsdvjLCT+qr10s223pF/HV0vjrzVf9L78mL0HKPRh2sfnyxHq2K1Xx1uQ/&#10;nO5DINvFsu7Sunj418O9ev54Slb0529e1NloCctXzQ9Jn/ZbVbSOHiOpWCHJOrJokazTYclNVkCy&#10;Oi1acpMVkaxOOy3ByQpIVpdFS3CyIpLVZdGSnKyAZHVYtCQnq/F5OAKLZLUyD0UnKyJZ3c1D2ckK&#10;SVZn81B2shqeh8KTFZCsruah8GQ1Ow+lJyskWR3NQ+nJanQeik9WSLK6mYfik9VkqyU/WSHJ6qTE&#10;y09Wg/NwAMmKSFYX0RpCsiKS9f/27hi3cSQLA7BogYkC90zAS+gIDnY72Mk9gHgfH0XAJgJlYH2A&#10;AUbxHkXRxI3G9NptWZZYRaq4Fi1Q/F7Wjhof/np8LJKlC7T4USRrIVmfH61RJOtc0RpHss4UrXEk&#10;60wXxJEk6zyz1liSVUrWJ0drNMkqJetzx4fxJOsM48N4knWGhTiiZH18IY4pWR++Io4pWR9uW6NK&#10;1kfb1riS9UGtkSXrY01+bMn6ULby0WGVkvUpE8QIk/XcuL5KVpf6RbI61W+/nrWKq8Y6/9zxG6wu&#10;VwZYXSbaAlaHmQNWl3slWF2mWVgd7sJzWB3uk2B12N/JYHW4Ay9gpe8cZrA67O0UsNL3pDNYHXYN&#10;C1iLi28TXmWyJrAWF99Uvc5kTSSrA1YhWZd+EnSlyZpI1qWfm11rsjLJuvA6vNZk9bIOrzZZmWRd&#10;dh1ebbL6mEuvN1m5ZF20aV1vsiaSddF1eMXJyiXrkuvwipM1kaxLTlrXnKxcsi44aV1zsiaSdcGm&#10;ddXJyiULVi/JyiTrch1+uMmaBjTTvjv8YJP1j6raHMvcVtVfsGLJmlZV9Xgss62qdb8dfqjJmj1j&#10;VfVgBWHLJGsXo6p6OvzL3ctflr12+KEm60XmeB3+5FvBCpN1U9Vppj//UvXa4QearFlA88pXb1q5&#10;ZO0a1BHN7etfHmAFyZoHNDu+ZZ+Xw4Ema/tK8xRgPcIKkrUNcjSPYk0kazc5HGHt+FZ9Xg4Hmqwq&#10;yBGsU8k6jZVL1rQRaw0rIVlVPFmZZKUvw0yy0rEmkpU+OkwkK4LVMJSedXYY9gT/BCshWak30ued&#10;HQaarHCLZhZkbdRYi/9j8++8s8NAk3UTYMW3lUeLtQhpHuoXyDWsMFm7y+Hy1KOw8w5aQ31uOAtG&#10;0NvIFvx4se6Dx/fzetNa9/v632DfonledZvZYZJuYoPDaLFq72f9+OvZZ3mI9eP7BFY0Wa9XwNVh&#10;z+r9Xclhv/l32LRma1ityTpsWncrWK3JOmxaTViZZIVNa/4IqzVZh01ru4TVnqyDphUdss47wg88&#10;We9Naxq71RkvVvQLi33TgnUyWe9N6ybc95OsaNP657cfTQP8Oe93hp6sn03rS9Ww4yBZYdOKvtUt&#10;WdGmdVu1JquQrIOmtW14CiZZYdP6d9XwMPrsd9LD/5K12hesU8l6e5Iff1ohWfWmVVUN7zlIVti0&#10;qvamJVnBRzvNw4NkBS/URN8KOfOG1vCT9d7gGzq8ZAUvATaPpZIVm7MaLoeZZNU/tmi+HEpWZHJo&#10;2niQrMjk0DQ7SFYUq4LVnqwZrPRk3R1ibWC1JivE+lL9B1Zisqbb2nQqWXGsh13HX/fzeGfwyZrX&#10;kzWv3yVKVhzr4e32ZylZKVjh+UcafCNW+BDRMow3+Kf9vy3Dk1jV98hnm5ZhA1b1R/h4GlYTVmzT&#10;FFb0Rjq6aSpZcawtrOT9rPX0G6w2rNq28t+wWrBqDywih0XBanoUNpWsNqzjh6yw3v6vCY/vI1i5&#10;ZMWStYmefyRZsQa/jp9/lMOKzFmrA6wHWO0ta3nw7w2s6OQwP3o9Kzz/CNb7KnycHT2PDndKx4n1&#10;NbpD83Q8tN8ELx8VkrVfhfULYLCdJVn72+hV/UcG7uovPRSw9qtwPy48vc8Sqwms2Pi+eXtivz+q&#10;oP6uwzix7uOr8OWz3+2fm/0hGNNv333Jeoz1Zfvny1D1dPJ4FVi7xbY96ORNpxzBem1T08Phs/Hz&#10;e1g/B4T/Hp/M1venO4PCihzbvTncq3mAFcWaRl587/3TnaFi3Ua+P9kuYUVvDmeRb+YaThvLR481&#10;j2A1DFqw5pEPDBsGrbFifW35WYaXPvblh0NdI1ixrzFv4l8cwophTeNf74wV677lR4p2WI+OOE/C&#10;uo1/nzl6rGkM6y76FV02VqxFa7K20eMKYEWx4scVjBarbMOaxo8ryGFFRoeb/n9ndFhYX5t/Gvlt&#10;I2Lth9UasJ4iL8TDqs8Od+GuQwNWCWsWHk1wB6sBK3KO6130bIdsvFiL40vfClb67LA8jZXD2tE8&#10;wEqaHcKjLuINvoAVebGoYXQYM9b7jlb9eJ4GrBJWy9cDa1jhJk3TV5qr/iaHoWGVzVjRLZocVttX&#10;mktYkcthw1c8D/1dDAeH1dLhYw8sSlgtl8M+L4aDw1qcaFrLHi+Gg8Nq6/B3/d4ZXhfW8/DwxwRW&#10;2uVwMtn0uAE/RKz7SYcqR4616GCVwUqvfOxYJaxzdfhe+/sAse4v1t8HiLW4WH+/aqwcVnrTgtUB&#10;q4SVvA4zWOlYOaz0dQirA1YJK3kdZrDSbw9zWOnrsICVfntYwkpuWhms9KZVwEpfhyWs5HWYwUpf&#10;hzms9HVYwkpehxms9Lm0gJW+DktYyS0+h5W+DgtYyS0+K2ElR6uAlRytvoI1YKzmaOWwkqeH3oI1&#10;ZKymaBWwkrtWf8EaNFY8WgWs5DE+L2GlLsSshJV8RSxhJWsVsJK1+m6RQ8c66FtZAetk/fJq9Wv/&#10;F9/yKupfv3/KpFIqWLBgwYIFS8GCBQsWLFgKFixYsGDBUrBgwYIFC5aCBQsWLFiwFCxYsGDBgqVg&#10;wYIFCxYsBQsWLFiwYClYsGDBggVLwYIFCxYsWAoWLFiwYMFSsGDBggULloIFCxYsWLAULFiwYMGC&#10;pWDBggULFiwFCxYsWLBgKViwYMGCBUvBggULFixYChYsWLBgwVKwYMGCBQuWggULFixYsBQsWLBg&#10;wYKlYMGCBQsWLAULFixYsGApWLBgwYIFS8GCBQsWLFgKFixYsGDBUrBgwYIFC5aCBQsWLFiwFCxY&#10;sGDBgqVgwYIFCxYsBQsWLFiwYClYsGDBggVLwYIFCxYsWAoWLFiwYMFSsGDBggULloIFCxYsWLAU&#10;LFiwYMGCpWDBggULFiwFCxYsWLBgKViwYMGCBUvBggULFixYChYsWLBgwVKwYMGCBQuWggULFixY&#10;sBQsWLBgwYKlYMGCBQsWLAULFixYsGApWLBgDaf+B2/E/uvUh3tzAAAAAElFTkSuQmCC&#10;"
       id="image1" />
    <path
       style="fill:#000000"
       d="m 1624.5579,639.43374 c -3.8582,-2.62175 -7.8534,-9.5737 -7.8171,-13.60233 0.021,-2.36374 2.7657,-8.84452 5.0736,-11.98131 0.8961,-1.21796 0.4841,-2.84267 -1.9366,-7.63822 l -3.0749,-6.09119 -6.3973,0.51352 c -7.1403,0.57315 -11.6973,-0.57645 -17.2666,-4.35586 -2.0231,-1.37287 -4.1827,-2.30143 -4.7992,-2.06346 -0.6165,0.23796 -4.7997,3.40451 -9.296,7.03677 l -8.1751,6.60411 1.0104,3.65931 c 1.4091,5.10363 0.275,9.81678 -3.358,13.95451 -7.9246,9.0256 -18.9346,8.6759 -26.1864,-0.83171 -3.5291,-4.6269 -3.687,-12.8554 -0.342,-17.81907 4.9587,-7.35822 13.745,-10.0318 20.8661,-6.34933 1.6723,0.8648 3.5625,1.37095 4.2003,1.12479 0.6379,-0.24616 4.8502,-3.42882 9.3608,-7.07258 l 8.201,-6.62502 -1.9291,-4.24977 c -2.8093,-6.18916 -2.5597,-13.69214 0.697,-20.94901 l 2.6699,-5.94933 -10.4617,-10.46169 -10.4617,-10.46168 -3.6761,1.53597 c -4.9002,2.04745 -7.2773,1.93854 -12.4612,-0.57096 -11.9009,-5.76114 -12.7493,-21.66805 -1.5495,-29.05311 1.8359,-1.2106 4.6316,-1.829 8.2882,-1.83337 6.9315,-0.008 11.8739,3.07259 14.8752,9.27253 2.5095,5.18393 2.6185,7.56097 0.571,12.46121 l -1.536,3.6761 10.4617,10.46169 10.4617,10.46168 6.1973,-2.78119 c 5.0643,-2.27272 7.2411,-2.7057 11.9063,-2.36824 l 5.709,0.41295 2.2384,-5.77269 2.2384,-5.77268 -3.3204,-4.1318 c -2.8928,-3.59964 -3.3204,-4.86917 -3.3204,-9.85682 0,-4.73037 0.4867,-6.36319 2.8017,-9.39822 3.769,-4.94147 7.485,-6.67111 14.3325,-6.67111 5.5704,0 5.8704,0.1421 10.5496,4.99668 4.5865,4.7584 4.8162,5.2637 4.8162,10.59571 0,3.51129 -0.6447,6.69043 -1.729,8.52603 -2.3811,4.03088 -8.1148,7.78849 -13.2122,8.65867 -4.0213,0.68649 -4.3855,1.03437 -6.4437,6.15451 l -2.1815,5.42689 4.4347,4.07076 c 5.0927,4.67473 9.1077,12.44476 9.1219,17.65315 0.01,3.46881 0.1586,3.6115 4.7048,4.5 4.6812,0.91489 4.7072,0.90465 8.819,-3.4618 3.6067,-3.83006 4.7724,-4.44171 9.2934,-4.87612 6.5655,-0.63086 10.3183,0.91625 14.7327,6.07347 3.0151,3.52242 3.4599,4.73234 3.4599,9.41171 0,6.41744 -1.7921,10.24721 -6.4615,13.80878 -4.1372,3.15554 -9.9668,4.13538 -14.9058,2.50535 -4.1609,-1.37321 -10.2401,-7.97988 -11.1485,-12.11572 -0.623,-2.8362 -1.2628,-3.23331 -7.0929,-4.40182 -2.7479,-0.55076 -3.2483,-0.28578 -4.3125,2.28349 -0.6622,1.5986 -2.9488,4.6103 -5.0813,6.69268 l -3.8774,3.78613 3.3877,6.72704 c 3.0713,6.09882 3.6292,6.68087 5.9736,6.23271 1.4222,-0.27187 4.5829,0.26837 7.0238,1.20054 17.4562,6.66659 13.007,31.55116 -5.6411,31.55116 -4.0907,0 -6.2788,-0.59724 -9.0251,-2.46339 z m 16.8624,-1.49613 c 1.7608,-1.07362 3.9597,-3.41825 4.8864,-5.2103 5.1277,-9.91582 -2.0782,-21.2347 -13.5621,-21.30319 l -4.5257,-0.027 -3.9879,-7.71111 -3.9879,-7.71112 3.5903,-3.28888 c 1.9746,-1.80889 4.5658,-5.20139 5.7582,-7.53889 2.3706,-4.64731 2.6974,-4.75001 10.0781,-3.16714 3.5128,0.75337 5.0492,1.57015 5.0492,2.68428 0,0.88078 0.927,3.51644 2.0601,5.85703 3.6929,7.6286 13.5981,10.45066 20.5934,5.8672 5.9596,-3.90486 8.2012,-13.50376 4.5965,-19.68225 -2.0827,-3.5696 -7.9388,-6.80912 -12.3091,-6.80912 -4.623,0 -9.6245,2.75195 -12.0067,6.60646 -1.1535,1.86645 -2.3981,3.37447 -2.7658,3.35117 -0.3676,-0.0233 -3.1434,-0.61923 -6.1684,-1.32428 l -5.5,-1.28192 -0.6129,-4.9468 c -0.9728,-7.85169 -5.5599,-15.41913 -11.8007,-19.46792 l -2.4097,-1.56329 2.8196,-7.18671 c 2.6466,-6.74552 3.0095,-7.18806 5.9117,-7.20867 1.7006,-0.0121 4.9349,-0.85894 7.1874,-1.88192 13.766,-6.25184 9.6206,-27.06652 -5.3951,-27.08953 -13.1916,-0.0202 -19.9848,15.27109 -10.6713,24.02067 3.0701,2.88419 3.0757,4.15329 0.052,11.55287 l -2.4195,5.91987 -6.3305,-0.32108 c -5.4488,-0.27636 -7.1663,0.10398 -12.3306,2.73048 l -6,3.05157 -11.8445,-11.83012 -11.8445,-11.83011 1.7455,-4.91473 c 1.6994,-4.78469 1.6905,-5.03933 -0.3374,-9.6237 -2.5486,-5.76154 -6.9956,-8.75334 -13.0187,-8.75857 -8.5349,-0.007 -14.1929,5.57218 -14.1929,13.99626 0,6.23618 2.9134,10.63509 8.7549,13.21906 4.5843,2.02788 4.839,2.03681 9.6237,0.33744 l 4.9147,-1.74556 11.8301,11.84453 11.8301,11.84453 -2.9805,5.89092 c -3.5597,7.03582 -3.8573,13.07991 -0.9585,19.46828 1.0879,2.39757 1.978,4.71094 1.978,5.14084 0,0.69295 -16.6537,14.50359 -19.6898,16.3285 -0.6545,0.39335 -2.6795,-0.19297 -4.5,-1.30294 -8.6716,-5.2869 -19.5813,0.53713 -20.5856,10.98942 -1.5641,16.27768 19.6509,22.20228 26.7787,7.47833 1.9478,-4.02361 2.0807,-5.10295 1.1054,-8.97627 -0.6097,-2.4215 -1.1086,-4.64504 -1.1086,-4.94121 0,-0.82098 18.7584,-15.57587 19.8021,-15.57587 0.5025,0 4.015,1.62425 7.8057,3.60945 6.6426,3.47878 7.1649,3.5872 14.4249,2.99472 l 7.5328,-0.61473 3.2172,6.52421 c 1.7695,3.58832 3.2173,7.17071 3.2173,7.96087 0,0.79017 -1.0926,3.04659 -2.4279,5.01428 -1.3353,1.96769 -2.7162,4.89048 -3.0686,6.49507 -0.9233,4.20367 2.5442,11.46517 6.6784,13.98572 4.3116,2.62866 11.2725,2.66046 15.5195,0.0709 z M 1236.1292,398.82604 c -6.489,-1.56002 -14.4092,-6.91822 -18.0155,-12.18794 -4.9133,-7.17966 -5.5886,-12.485 -5.2204,-41.01355 0.3659,-28.35186 0.8177,-30.43387 8.2429,-37.98581 7.6066,-7.73654 19.9388,-11.11652 32.6234,-8.94135 17.0322,2.92068 27.3377,13.08159 27.4213,27.03632 0.034,5.72611 -0.2323,6.5691 -2.7678,8.75 -2.279,1.96033 -3.9112,2.41342 -8.6942,2.41342 -7.6705,0 -10.7803,-2.44164 -12.0988,-9.49931 -0.509,-2.72439 -1.5486,-5.57662 -2.3102,-6.33828 -1.9445,-1.94445 -9.972,-2.66147 -13.4887,-1.20481 -4.9576,2.05354 -5.6023,5.28044 -5.6023,28.0424 0,24.26784 0.4806,27.42148 4.4952,29.49751 3.2978,1.7054 10.2337,1.9855 12.9653,0.5236 2.0392,-1.09134 4.0278,-5.94817 4.0617,-9.92033 0.053,-6.17383 7.9962,-10.15111 16.069,-8.04578 5.7157,1.49063 7.4267,4.13975 7.3017,11.30534 -0.1319,7.56022 -2.0242,12.19947 -7.3192,17.94384 -5.9998,6.50904 -14.2015,9.88391 -25.0011,10.28753 -4.7149,0.17621 -10.413,-0.12205 -12.6623,-0.6628 z m 26.3646,-4.40838 c 9.9156,-4.44987 15.2497,-11.34148 16.6568,-21.52053 0.7935,-5.74007 -0.9276,-9.15593 -5.3368,-10.59214 -3.585,-1.16779 -10.5317,-0.37109 -12.3152,1.41241 -0.5827,0.58267 -1.4306,3.40782 -1.8844,6.2781 -0.5618,3.55402 -1.6933,6.1251 -3.5472,8.06017 -2.378,2.48212 -3.4554,2.84146 -8.5194,2.84146 -7.4372,0 -11.5641,-3.21351 -12.8789,-10.02836 -1.1559,-5.99142 -1.1402,-39.44005 0.021,-44.47164 1.3947,-6.04374 5.7949,-9.5 12.0947,-9.5 8.7012,0 11.853,2.85058 13.3755,12.09706 0.7011,4.25838 3.4858,5.90294 9.9953,5.90294 6.6224,0 8.9923,-2.43225 8.9923,-9.22882 0,-14.85633 -13.4208,-25.28776 -32.4286,-25.20543 -14.148,0.0613 -23.3885,4.883 -28.4775,14.85962 l -3.0225,5.92537 -0.3278,24.2915 c -0.37,27.42594 0.3331,32.90198 5.1466,40.0847 7.6981,11.4869 27.3738,15.56215 42.4561,8.79359 z m 250.3952,4.21473 c -1.5467,-0.82001 -5.5735,-7.55403 -11.9787,-20.03199 l -9.6489,-18.79673 -3.4576,0.29673 -3.4576,0.29673 -0.1439,14 c -0.2189,21.30416 -0.045,20.2543 -3.7334,22.56984 -4.5605,2.86319 -13.6573,2.30536 -17.2363,-1.05697 l -2.5137,-2.3615 v -45.13859 -45.1386 l 2.8047,-2.68709 2.8047,-2.68709 h 17.0116 c 9.3564,0 19.6637,0.49026 22.9051,1.08946 17.237,3.18643 25.4397,13.98927 24.2129,31.88802 -0.7704,11.23954 -5.1431,18.91438 -13.9717,24.52252 -1.3507,0.85801 -0.3818,3.12986 6.8239,16 4.6189,8.25 8.3988,15.675 8.3997,16.5 0,2.94201 -3.9768,7.95217 -7.9119,9.95966 -4.5688,2.33085 -7.5726,2.54442 -10.9089,0.7756 z m 9.8491,-2.74507 c 2.1668,-1.1054 4.6553,-3.39382 5.53,-5.08538 1.5896,-3.07386 1.5857,-3.08416 -6.9794,-18.53634 -4.7134,-8.50343 -8.5698,-15.88436 -8.5698,-16.40208 0,-0.51772 1.7439,-2.0422 3.8754,-3.38775 7.3655,-4.64963 10.9236,-11.16083 11.8203,-21.63086 1.0612,-12.39081 -3.4053,-21.73998 -12.6162,-26.40748 -6.8608,-3.47662 -14.5364,-4.5403 -32.7632,-4.5403 -14.983,0 -16.4798,0.16344 -18.3163,2 -1.9399,1.93987 -2,3.33333 -2,46.34501 0,42.76889 0.07,44.40804 1.9594,46.11827 2.8219,2.55378 9.9862,3.13334 13.8749,1.12241 3.5657,-1.84392 3.349,-0.47803 3.3453,-21.08569 -0,-17.12695 -0.1729,-16.66765 6.0244,-16.29938 l 5.0379,0.29938 9.8256,18.96817 c 11.2448,21.70792 12.1179,22.51851 19.9517,18.52202 z m -40.1742,-53.12388 c -0.4821,-4.25042 -0.6945,-21.70954 -0.2874,-23.61631 0.4593,-2.15067 0.9204,-2.25 10.4457,-2.25 9.5973,0 10.0857,0.1077 13.2309,2.91797 3.104,2.77343 3.2658,3.26782 3.2658,9.98077 0,6.62743 -0.1993,7.2621 -3.2332,10.29601 -3.1401,3.1401 -3.5217,3.2448 -13.25,3.63554 -7.9469,0.31919 -10.0488,0.11998 -10.1718,-0.96398 z m 20.9306,-2.93557 c 4.9825,-3.13262 5.2721,-15.1748 0.4561,-18.96307 -2.2304,-1.75451 -3.7861,-2.00016 -11.1072,-1.75396 l -8.5134,0.28629 0.1088,10.5 c 0.06,5.775 0.1473,10.89393 0.1944,11.3754 0.1362,1.39142 16.3223,0.15165 18.8613,-1.44466 z m -208.2756,56.77172 c -7.6267,-4.31789 -7.8887,-2.33472 6.5627,-49.67693 10.4013,-34.07409 13.4732,-42.97548 15.5956,-45.19082 3.5519,-3.70738 11.2657,-5.4708 17.0812,-3.90486 8.3894,2.25903 8.1088,1.65636 22.285,47.86599 7.1365,23.26271 12.9755,43.09102 12.9755,44.06291 0,2.2121 -4.5886,6.66966 -8.3151,8.07763 -4.4197,1.66986 -10.1506,1.31157 -12.0174,-0.75131 -1.7161,-1.89621 -2.4834,-3.90679 -5.1277,-13.43507 l -1.5957,-5.75 h -13.2846 -13.2845 l -2.3318,9.04432 c -1.6041,6.22227 -2.9802,9.49853 -4.41,10.5 -3.0684,2.1492 -9.53,1.76431 -14.1332,-0.84186 z m 12.7277,-0.95246 c 0.8855,-0.6875 2.6875,-5.3 4.0045,-10.25 l 2.3946,-9 14.6372,-0.27645 c 16.7554,-0.31646 15.4513,-1.01772 18.2235,9.79982 2.248,8.77213 3.7984,10.97663 7.7198,10.97663 4.0736,0 11.5337,-3.60856 12.2725,-5.93642 0.3147,-0.99148 -5.2802,-20.8739 -12.4331,-44.18314 -9.6818,-31.55057 -13.5458,-42.8243 -15.1206,-44.11739 -6.3716,-5.23156 -19.604,-3.74378 -22.4561,2.52484 -2.8054,6.16612 -25.6043,82.74698 -25.2885,84.94335 0.6639,4.61721 12.1287,8.56029 16.0462,5.51876 z m 11.2794,-35 c -0.2366,-0.6875 1.7719,-9.125 4.4632,-18.75 2.6913,-9.625 4.9688,-16.375 5.0612,-15 l 0.1678,2.5 0.8007,-2.5 c 0.4403,-1.375 0.8455,-2.16904 0.9003,-1.76453 0.055,0.40451 2.1247,8.10075 4.5997,17.10277 2.475,9.00201 4.5,17.10855 4.5,18.01453 0,1.42017 -1.3828,1.64723 -10.0314,1.64723 -7.1291,0 -10.1558,-0.36166 -10.4615,-1.25 z m 18.0968,-2.5 c -0.2919,-0.9625 -2.1098,-7.55 -4.0396,-14.63889 -1.9298,-7.08889 -3.647,-13.02714 -3.816,-13.1961 -0.169,-0.16897 -2.1362,6.41853 -4.3716,14.63889 l -4.0644,14.9461 h 8.4112 c 7.5463,0 8.3567,-0.17996 7.8804,-1.75 z m 47.4728,38.16111 -3.0767,-2.5889 v -44.47685 c 0,-28.59257 0.3677,-45.16394 1.0296,-46.40075 2.4194,-4.52066 5.27,-4.94461 33.2464,-4.94461 h 26.3753 l 2.4244,2.58056 c 3.4005,3.61967 3.4834,12.30334 0.1494,15.64166 -2.1639,2.16671 -3.1853,2.30216 -20.9483,2.77778 l -18.6734,0.5 0.1115,8.5 c 0.061,4.675 0.1506,9.0625 0.1983,9.75 0.063,0.91156 2.8151,1.25 10.1637,1.25 9.8043,0 10.156,0.0791 13,2.92308 3.8194,3.81938 3.9556,8.6964 0.3621,12.96698 -2.5226,2.99794 -2.7199,3.04775 -13.1803,3.32673 l -10.6194,0.28321 0.091,8.75 c 0.05,4.8125 0.1312,9.3125 0.1803,10 0.068,0.94746 3.9755,1.23343 16.1462,1.18155 20.6405,-0.088 21.6754,0.0819 24.0313,3.94544 3.2057,5.25715 1.7121,14.33447 -2.633,16.00183 -0.8904,0.34165 -13.6975,0.62118 -28.4603,0.62118 h -26.8415 z m 58.3503,-0.98104 c 2.0934,-2.09339 2.945,-5.81184 2.101,-9.17448 -1.3103,-5.22054 -1.4543,-5.25559 -21.5915,-5.25559 -13.9663,0 -19.0224,-0.3223 -19.6093,-1.25 -0.8937,-1.41246 -1.4554,-19.31209 -0.6905,-22 0.434,-1.52509 1.871,-1.75197 11.1807,-1.76531 11.3492,-0.0163 12.2317,-0.24701 14.0329,-3.66895 1.7842,-3.38982 1.3729,-6.18346 -1.3049,-8.86119 -2.3056,-2.3056 -3.1155,-2.45455 -13.3466,-2.45455 h -10.8922 l -0.084,-10.25 c -0.046,-5.6375 0.1401,-11.0375 0.4141,-12 0.451,-1.58436 2.2217,-1.75 18.7082,-1.75 20.296,0 22.0932,-0.48757 23.1816,-6.28915 0.6425,-3.42495 -0.8562,-8.6644 -2.839,-9.92519 -0.6531,-0.41527 -12.5723,-0.76193 -26.4871,-0.77035 -26.4175,-0.016 -30.034,0.50273 -31.5792,4.52949 -0.8824,2.29961 -0.7441,87.72826 0.1442,89.04066 2.0322,3.00253 5.2457,3.35432 30.9132,3.38413 22.4821,0.0261 26.4003,-0.19127 27.7485,-1.53952 z m 108.93,2.57835 c -5.3905,-2.17531 -5.357,-1.86434 -5.357,-49.80785 v -44.35442 l 3.0253,-3.02533 3.0253,-3.02532 20.2247,0.4224 c 23.5895,0.49269 28.3167,1.69686 35.4194,9.02254 5.4353,5.60586 7.3755,10.52817 8.0304,20.37321 1.1362,17.07959 -5.0751,28.15462 -18.7251,33.38778 -1.925,0.73801 -8.9,1.6021 -15.5,1.9202 l -12,0.57837 -0.5,16 -0.5,16 -3.5,1.74845 c -3.7014,1.84903 -10.0658,2.20355 -13.643,0.75997 z m 12.1751,-2.45739 3.4679,-1.44898 v -14.96924 c 0,-8.23308 0.2731,-15.68104 0.607,-16.55102 0.5012,-1.3062 2.4738,-1.58179 11.3218,-1.58179 17.2784,0 26.64,-4.34856 31.7457,-14.74614 2.4986,-5.08812 2.8255,-6.85303 2.8255,-15.25386 0,-11.17179 -1.7604,-16.55201 -7.2823,-22.25643 -6.4511,-6.66446 -11.8824,-8.0297 -33.9082,-8.5234 l -19.1905,-0.43014 -2.5595,2.55953 -2.5595,2.55953 v 43.1112 c 0,28.592 0.3588,43.78162 1.0653,45.10186 2.0473,3.82536 8.5226,4.91252 14.4668,2.42888 z m 3.942,-49.75792 c -0.2942,-0.7667 -0.4088,-7.44631 -0.2545,-14.84356 l 0.2804,-13.44955 9.7255,-0.28592 9.7255,-0.28591 3.7745,3.46007 3.7745,3.46008 -0.028,8.08408 c -0.026,7.76563 -0.1551,8.21178 -3.2673,11.32584 -3.1577,3.15967 -3.4924,3.25046 -13.218,3.58533 -7.8463,0.27016 -10.0925,0.0457 -10.5131,-1.05046 z m 22.1594,-3.97105 c 2.3172,-2.31812 2.6896,-3.53922 2.7717,-9.08796 0.1661,-11.23628 -2.6442,-13.7341 -15.4523,-13.7341 h -7.9529 v 13.0995 13.0995 l 8.9783,-0.3495 c 8.1679,-0.31795 9.22,-0.59122 11.6552,-3.02744 z"
       id="path1" />
  </g>
</svg>
